---
http_interactions:
- request:
    method: get
    uri: "<GIDS_URL>/v0/institutions?name=illinois"
    body:
      encoding: US-ASCII
      string: ''
    headers:
      Accept:
      - application/json
      Content-Type:
      - application/json
      User-Agent:
      - Vets.gov Agent
      Accept-Encoding:
      - gzip;q=1.0,deflate;q=0.6,identity;q=0.3
  response:
    status:
      code: 200
      message: OK
    headers:
      Date:
      - Fri, 16 Sep 2022 15:36:23 GMT
      Content-Type:
      - application/json; charset=utf-8
      Connection:
      - keep-alive
      Cache-Control:
      - no-store
      Expires:
      - 2021-09-16 15:36:22 UTC
      Pragma:
      - no-cache
      Vary:
      - Origin
      X-Content-Type-Options:
      - nosniff
      - nosniff
      X-Frame-Options:
      - SAMEORIGIN
      - deny
      X-Request-Id:
      - cc1a5c36-396a-4443-90cf-94d0220dd90a
      X-Runtime:
      - '1.268777'
      Referrer-Policy:
      - no-referrer-when-downgrade
      Strict-Transport-Security:
      - max-age=31536000; includeSubDomains; preload
      X-Xss-Protection:
      - 1; report=/csp-report
      Transfer-Encoding:
      - chunked
    body:
      encoding: UTF-8
      string: '{"data":[{"id":"4132791","type":"institutions","attributes":{"name":"UNIVERSITY
        OF ILLINOIS POLICE TRAINING INSTITUTE","facility_code":"11822613","alias":"Illinois|Illinios|Ilinois|Ilinios|Urbana|Champaign|Champagne|Champaign-Urbana|Champagne-Urbana|Urbana-Champaign|Urbana-Champagne|University
        of Illinois at Urbana|University of Illinois at Champaign|University of Illinois
        at Champagne|University of Illinois at Champaign-Urbana|University of Illinois
        at Champagne-Urbana|UIUC|UICU|University of Illinois at UC|University of Illinois
        at CU","type":"PUBLIC","city":"CHAMPAIGN","state":"IL","zip":"61820","country":"USA","highest_degree":4,"locale_type":"city","student_count":15,"caution_flag":null,"caution_flag_reason":null,"caution_flags":[],"created_at":"2021-06-10T17:38:18.000Z","updated_at":"2021-06-10T17:38:18.000Z","address_1":"1004
        S FOURTH ST","address_2":null,"address_3":null,"physical_address_1":"1004
        S FOURTH ST","physical_address_2":null,"physical_address_3":null,"physical_city":"CHAMPAIGN","physical_state":"IL","physical_zip":"61820","physical_country":"USA","online_only":false,"distance_learning":true,"dod_bah":1020,"bah":1112.0,"tuition_in_state":15020,"tuition_out_of_state":29646,"books":1200,"student_veteran":true,"yr":false,"poe":false,"eight_keys":null,"stem_offered":true,"independent_study":false,"priority_enrollment":false,"school_closing":false,"school_closing_on":null,"closure109":null,"vet_tec_provider":false,"parent_facility_code_id":null,"campus_type":"Y","preferred_provider":false,"count_of_caution_flags":0,"hbcu":0,"hcm2":0,"menonly":0,"pctfloan":0.349,"relaffil":null,"womenonly":0,"rating_count":0,"rating_average":null},"links":{"website":"http://www.illinois.edu/","scorecard":"https://collegescorecard.ed.gov/school/?145637-university-of-illinois-police-training-institute","self":"https://dev-api.va.gov/gids/v0/institutions/11822613"}},{"id":"4177656","type":"institutions","attributes":{"name":"ILLINOIS
        COLLEGE","facility_code":"31001313","alias":null,"type":"PRIVATE","city":"JACKSONVILLE","state":"IL","zip":"62650","country":"USA","highest_degree":4,"locale_type":"town","student_count":22,"caution_flag":null,"caution_flag_reason":null,"caution_flags":[],"created_at":"2021-06-10T17:38:18.000Z","updated_at":"2021-06-10T17:38:18.000Z","address_1":"1101
        W COLLEGE","address_2":null,"address_3":null,"physical_address_1":"1101 W
        COLLEGE","physical_address_2":null,"physical_address_3":null,"physical_city":"JACKSONVILLE","physical_state":"IL","physical_zip":"62650","physical_country":"USA","online_only":false,"distance_learning":false,"dod_bah":1284,"bah":1376.0,"tuition_in_state":29210,"tuition_out_of_state":29210,"books":900,"student_veteran":null,"yr":true,"poe":true,"eight_keys":null,"stem_offered":true,"independent_study":true,"priority_enrollment":false,"school_closing":false,"school_closing_on":null,"closure109":null,"vet_tec_provider":false,"parent_facility_code_id":null,"campus_type":"Y","preferred_provider":false,"count_of_caution_flags":0,"hbcu":0,"hcm2":0,"menonly":0,"pctfloan":0.8832,"relaffil":66,"womenonly":0,"rating_count":0,"rating_average":null},"links":{"website":"http://www.ic.edu","scorecard":"https://collegescorecard.ed.gov/school/?145691-illinois-college","self":"https://dev-api.va.gov/gids/v0/institutions/31001313"}},{"id":"4131153","type":"institutions","attributes":{"name":"ILLINOIS
        STATE UNIVERSITY","facility_code":"11000413","alias":null,"type":"PUBLIC","city":"NORMAL","state":"IL","zip":"61790","country":"USA","highest_degree":4,"locale_type":"suburban","student_count":536,"caution_flag":null,"caution_flag_reason":null,"caution_flags":[],"created_at":"2021-06-10T17:38:18.000Z","updated_at":"2021-06-10T17:38:18.000Z","address_1":"OFFICE
        OF VETERANS AFFAIRS,","address_2":"112 MOULTON HALL","address_3":"CAMPUS BOX
        2204","physical_address_1":"OFFICE OF VETERANS AFFAIRS,","physical_address_2":"112
        MOULTON HALL","physical_address_3":"CAMPUS BOX 2204","physical_city":"NORMAL","physical_state":"IL","physical_zip":"61790","physical_country":"USA","online_only":false,"distance_learning":true,"dod_bah":1479,"bah":1571.0,"tuition_in_state":13296,"tuition_out_of_state":20886,"books":972,"student_veteran":true,"yr":false,"poe":true,"eight_keys":true,"stem_offered":true,"independent_study":false,"priority_enrollment":true,"school_closing":false,"school_closing_on":null,"closure109":null,"vet_tec_provider":false,"parent_facility_code_id":null,"campus_type":"Y","preferred_provider":false,"count_of_caution_flags":0,"hbcu":0,"hcm2":0,"menonly":0,"pctfloan":0.5597,"relaffil":null,"womenonly":0,"rating_count":0,"rating_average":null},"links":{"website":"http://illinoisstate.edu/","scorecard":"https://collegescorecard.ed.gov/school/?145813-illinois-state-university","self":"https://dev-api.va.gov/gids/v0/institutions/11000413"}},{"id":"4186213","type":"institutions","attributes":{"name":"ILLINOIS
        STATE POLICE ACADEMY","facility_code":"35051713","alias":null,"type":"PRIVATE","city":"SPRINGFIELD","state":"IL","zip":"62712","country":"USA","highest_degree":"Certificate","locale_type":null,"student_count":12,"caution_flag":null,"caution_flag_reason":null,"caution_flags":[],"created_at":"2021-06-10T17:38:18.000Z","updated_at":"2021-06-10T17:38:18.000Z","address_1":"3700
        EAST LAKE SHORE DR","address_2":null,"address_3":null,"physical_address_1":"3700
        EAST LAKE SHORE DR","physical_address_2":null,"physical_address_3":null,"physical_city":"SPRINGFIELD","physical_state":"IL","physical_zip":"62712","physical_country":"USA","online_only":false,"distance_learning":false,"dod_bah":1059,"bah":1151.0,"tuition_in_state":null,"tuition_out_of_state":null,"books":null,"student_veteran":null,"yr":false,"poe":false,"eight_keys":null,"stem_offered":false,"independent_study":false,"priority_enrollment":false,"school_closing":false,"school_closing_on":null,"closure109":null,"vet_tec_provider":false,"parent_facility_code_id":null,"campus_type":"Y","preferred_provider":false,"count_of_caution_flags":0,"hbcu":null,"hcm2":null,"menonly":null,"pctfloan":null,"relaffil":null,"womenonly":null,"rating_count":0,"rating_average":null},"links":{"self":"https://dev-api.va.gov/gids/v0/institutions/35051713"}},{"id":"4132783","type":"institutions","attributes":{"name":"UNIVERSITY
        OF ILLINOIS AT CHICAGO","facility_code":"11822113","alias":"UIC|U of I-Chicago|Illinois-Chicago|U
        of I-Medical Center|University of Illinois-Medical Center|","type":"PUBLIC","city":"CHICAGO","state":"IL","zip":"60607","country":"USA","highest_degree":4,"locale_type":"city","student_count":467,"caution_flag":null,"caution_flag_reason":null,"caution_flags":[],"created_at":"2021-06-10T17:38:18.000Z","updated_at":"2021-06-10T17:38:18.000Z","address_1":"1200
        W HARRISON STREET","address_2":null,"address_3":null,"physical_address_1":"1200
        W HARRISON STREET","physical_address_2":null,"physical_address_3":null,"physical_city":"CHICAGO","physical_state":"IL","physical_zip":"60607","physical_country":"USA","online_only":false,"distance_learning":true,"dod_bah":2142,"bah":2234.0,"tuition_in_state":13634,"tuition_out_of_state":26024,"books":1400,"student_veteran":true,"yr":false,"poe":false,"eight_keys":true,"stem_offered":true,"independent_study":false,"priority_enrollment":false,"school_closing":false,"school_closing_on":null,"closure109":null,"vet_tec_provider":false,"parent_facility_code_id":null,"campus_type":"Y","preferred_provider":false,"count_of_caution_flags":0,"hbcu":0,"hcm2":0,"menonly":0,"pctfloan":0.4258,"relaffil":null,"womenonly":0,"rating_count":0,"rating_average":null},"links":{"website":"http://www.uic.edu","scorecard":"https://collegescorecard.ed.gov/school/?145600-university-of-illinois-at-chicago","self":"https://dev-api.va.gov/gids/v0/institutions/11822113"}},{"id":"4126776","type":"institutions","attributes":{"name":"ILLINOIS
        STATE UNIVERSITY POLICE DEPARTMENT","facility_code":"10700613","alias":null,"type":"OJT","city":"NORMAL","state":"IL","zip":"61790","country":"USA","highest_degree":null,"locale_type":null,"student_count":null,"caution_flag":null,"caution_flag_reason":null,"caution_flags":[],"created_at":"2021-06-10T17:38:18.000Z","updated_at":"2021-06-10T17:38:18.000Z","address_1":"700
        W COLLEGE DR","address_2":null,"address_3":null,"physical_address_1":"700
        W COLLEGE DR","physical_address_2":null,"physical_address_3":null,"physical_city":"NORMAL","physical_state":"IL","physical_zip":"61790","physical_country":"USA","online_only":false,"distance_learning":false,"dod_bah":1479,"bah":1571.0,"tuition_in_state":null,"tuition_out_of_state":null,"books":null,"student_veteran":null,"yr":false,"poe":false,"eight_keys":null,"stem_offered":false,"independent_study":false,"priority_enrollment":false,"school_closing":false,"school_closing_on":null,"closure109":null,"vet_tec_provider":false,"parent_facility_code_id":null,"campus_type":"Y","preferred_provider":false,"count_of_caution_flags":0,"hbcu":null,"hcm2":null,"menonly":null,"pctfloan":null,"relaffil":null,"womenonly":null,"rating_count":0,"rating_average":null},"links":{"self":"https://dev-api.va.gov/gids/v0/institutions/10700613"}},{"id":"4141183","type":"institutions","attributes":{"name":"UNIVERSITY
        OF ILLINOIS-ILLINOIS FIRE SERVICE INSTITUTE","facility_code":"15005713","alias":"Illinois|Illinios|Ilinois|Ilinios|Urbana|Champaign|Champagne|Champaign-Urbana|Champagne-Urbana|Urbana-Champaign|Urbana-Champagne|University
        of Illinois at Urbana|University of Illinois at Champaign|University of Illinois
        at Champagne|University of Illinois at Champaign-Urbana|University of Illinois
        at Champagne-Urbana|UIUC|UICU|University of Illinois at UC|University of Illinois
        at CU","type":"PUBLIC","city":"CHAMPAIGN","state":"IL","zip":"61820","country":"USA","highest_degree":4,"locale_type":"city","student_count":1,"caution_flag":null,"caution_flag_reason":null,"caution_flags":[],"created_at":"2021-06-10T17:38:18.000Z","updated_at":"2021-06-10T17:38:18.000Z","address_1":"#11
        GERTY DR","address_2":null,"address_3":null,"physical_address_1":"#11 GERTY
        DR","physical_address_2":null,"physical_address_3":null,"physical_city":"CHAMPAIGN","physical_state":"IL","physical_zip":"61820","physical_country":"USA","online_only":false,"distance_learning":false,"dod_bah":1020,"bah":1112.0,"tuition_in_state":15020,"tuition_out_of_state":29646,"books":1200,"student_veteran":true,"yr":false,"poe":false,"eight_keys":null,"stem_offered":true,"independent_study":false,"priority_enrollment":false,"school_closing":false,"school_closing_on":null,"closure109":null,"vet_tec_provider":false,"parent_facility_code_id":null,"campus_type":"Y","preferred_provider":false,"count_of_caution_flags":0,"hbcu":0,"hcm2":0,"menonly":0,"pctfloan":0.349,"relaffil":null,"womenonly":0,"rating_count":0,"rating_average":null},"links":{"website":"http://www.illinois.edu/","scorecard":"https://collegescorecard.ed.gov/school/?145637-university-of-illinois-illinois-fire-service-institute","self":"https://dev-api.va.gov/gids/v0/institutions/15005713"}},{"id":"4133160","type":"institutions","attributes":{"name":"UNIVERSITY
        OF ILLINOIS AT URBANA-CHAMPAIGN","facility_code":"11953113","alias":"Illinois|Illinios|Ilinois|Ilinios|Urbana|Champaign|Champagne|Champaign-Urbana|Champagne-Urbana|Urbana-Champaign|Urbana-Champagne|University
        of Illinois at Urbana|University of Illinois at Champaign|University of Illinois
        at Champagne|University of Illinois at Champaign-Urbana|University of Illinois
        at Champagne-Urbana|UIUC|UICU|University of Illinois at UC|University of Illinois
        at CU","type":"PUBLIC","city":"CHAMPAIGN","state":"IL","zip":"61820","country":"USA","highest_degree":4,"locale_type":"city","student_count":483,"caution_flag":null,"caution_flag_reason":null,"caution_flags":[],"created_at":"2021-06-10T17:38:18.000Z","updated_at":"2021-06-10T17:38:18.000Z","address_1":"620
        EAST JOHN STREET","address_2":"MC 303","address_3":null,"physical_address_1":"620
        EAST JOHN STREET","physical_address_2":"MC 303","physical_address_3":null,"physical_city":"CHAMPAIGN","physical_state":"IL","physical_zip":"61820","physical_country":"USA","online_only":false,"distance_learning":true,"dod_bah":1020,"bah":1112.0,"tuition_in_state":15020,"tuition_out_of_state":29646,"books":1200,"student_veteran":true,"yr":false,"poe":true,"eight_keys":null,"stem_offered":true,"independent_study":true,"priority_enrollment":false,"school_closing":false,"school_closing_on":null,"closure109":null,"vet_tec_provider":false,"parent_facility_code_id":null,"campus_type":"Y","preferred_provider":false,"count_of_caution_flags":0,"hbcu":0,"hcm2":0,"menonly":0,"pctfloan":0.349,"relaffil":null,"womenonly":0,"rating_count":0,"rating_average":null},"links":{"website":"http://www.illinois.edu/","scorecard":"https://collegescorecard.ed.gov/school/?145637-university-of-illinois-at-urbana-champaign","self":"https://dev-api.va.gov/gids/v0/institutions/11953113"}},{"id":"4168837","type":"institutions","attributes":{"name":"UNIVERSAL
        TECHNICAL INSTITUTE OF ILLINOIS INC","facility_code":"25066713","alias":"UTI
        of Illinois, Inc.  Universal Technical Institute  UTI-IL  UTI-Glendale Heights","type":"FOR
        PROFIT","city":"LISLE","state":"IL","zip":"60532","country":"USA","highest_degree":"Certificate","locale_type":"suburban","student_count":217,"caution_flag":null,"caution_flag_reason":null,"caution_flags":[],"created_at":"2021-06-10T17:38:18.000Z","updated_at":"2021-06-10T17:38:18.000Z","address_1":"2611
        Corporate West Drive","address_2":null,"address_3":null,"physical_address_1":"2611
        Corporate West Drive","physical_address_2":null,"physical_address_3":null,"physical_city":"LISLE","physical_state":"IL","physical_zip":"60532","physical_country":"USA","online_only":false,"distance_learning":false,"dod_bah":2142,"bah":2234.0,"tuition_in_state":41200,"tuition_out_of_state":41200,"books":215,"student_veteran":null,"yr":false,"poe":true,"eight_keys":true,"stem_offered":false,"independent_study":false,"priority_enrollment":false,"school_closing":false,"school_closing_on":null,"closure109":null,"vet_tec_provider":false,"parent_facility_code_id":"25003303","campus_type":"N","preferred_provider":false,"count_of_caution_flags":0,"hbcu":0,"hcm2":0,"menonly":0,"pctfloan":0.6396,"relaffil":null,"womenonly":0,"rating_count":0,"rating_average":null},"links":{"website":"http://www.uti.edu/","scorecard":"https://collegescorecard.ed.gov/school/?366191-universal-technical-institute-of-illinois-inc","self":"https://dev-api.va.gov/gids/v0/institutions/25066713"}},{"id":"4132793","type":"institutions","attributes":{"name":"UNIVERSITY
        OF ILLINOIS AT URBANA-CHAMPAIGN","facility_code":"11822813","alias":"Illinois|Illinios|Ilinois|Ilinios|Urbana|Champaign|Champagne|Champaign-Urbana|Champagne-Urbana|Urbana-Champaign|Urbana-Champagne|University
        of Illinois at Urbana|University of Illinois at Champaign|University of Illinois
        at Champagne|University of Illinois at Champaign-Urbana|University of Illinois
        at Champagne-Urbana|UIUC|UICU|University of Illinois at UC|University of Illinois
        at CU","type":"PUBLIC","city":"CHICAGO","state":"IL","zip":"60607","country":"USA","highest_degree":4,"locale_type":"city","student_count":null,"caution_flag":null,"caution_flag_reason":null,"caution_flags":[],"created_at":"2021-06-10T17:38:18.000Z","updated_at":"2021-06-10T17:38:18.000Z","address_1":"1200
        W HARRISON ST","address_2":"STE 1600","address_3":null,"physical_address_1":"1200
        W HARRISON ST","physical_address_2":"STE 1600","physical_address_3":null,"physical_city":"CHICAGO","physical_state":"IL","physical_zip":"60607","physical_country":"USA","online_only":false,"distance_learning":true,"dod_bah":2142,"bah":2234.0,"tuition_in_state":15020,"tuition_out_of_state":29646,"books":1200,"student_veteran":true,"yr":false,"poe":false,"eight_keys":null,"stem_offered":true,"independent_study":false,"priority_enrollment":false,"school_closing":false,"school_closing_on":null,"closure109":null,"vet_tec_provider":false,"parent_facility_code_id":null,"campus_type":"Y","preferred_provider":false,"count_of_caution_flags":0,"hbcu":0,"hcm2":0,"menonly":0,"pctfloan":0.349,"relaffil":null,"womenonly":0,"rating_count":0,"rating_average":null},"links":{"website":"http://www.illinois.edu/","scorecard":"https://collegescorecard.ed.gov/school/?145637-university-of-illinois-at-urbana-champaign","self":"https://dev-api.va.gov/gids/v0/institutions/11822813"}}],"links":{"self":"https://dev-api.va.gov/gids/v0/institutions?name=illinois","first":"https://dev-api.va.gov/gids/v0/institutions?name=illinois\u0026page=1\u0026per_page=10","prev":null,"next":"https://dev-api.va.gov/gids/v0/institutions?name=illinois\u0026page=2\u0026per_page=10","last":"https://dev-api.va.gov/gids/v0/institutions?name=illinois\u0026page=22\u0026per_page=10"},"meta":{"version":{"number":73,"created_at":"2021-06-10T17:38:18.796Z","preview":false},"count":219,"facets":{"category":{"school":68,"employer":151},"type":{"flight":1,"for
        profit":4,"ojt":151,"private":14,"public":49},"state":{"ca":4,"ct":1,"de":1,"fl":3,"ga":1,"il":200,"nc":2,"nj":1,"pa":1,"sc":1,"tn":1,"va":2,"wa":1},"country":[{"name":"USA","count":219}],"student_vet_group":{"true":null,"false":null},"yellow_ribbon_scholarship":{"true":null,"false":null},"principles_of_excellence":{"true":null,"false":null},"eight_keys_to_veteran_success":{"true":null,"false":null},"stem_offered":{"true":null,"false":null},"independent_study":{"true":null,"false":null},"online_only":{"true":null,"false":null},"distance_learning":{"true":null,"false":null},"priority_enrollment":{"true":null,"false":null},"menonly":{"true":null,"false":null},"womenonly":{"true":null,"false":null},"hbcu":{"true":null,"false":null},"relaffil":{"66":1}}}}'
  recorded_at: Fri, 16 Sep 2022 15:36:24 GMT
recorded_with: VCR 6.1.0
